{
  "name": "Patient",
  "base": "User",
  "strict": false,
  "idInjection": false,
  "options": {
    "validateUpsert": true
  },
  "properties": {

  },
  "validations": [],
  "relations": {
  },
  "acls": [
    {
      "principalType": "ROLE",
      "principalId": "$unauthenticated",
      "permission": "ALLOW",
      "property": "*"
    }
  ],
  "methods": {}
}
